<?xml version="1.0" encoding="UTF-8" standalone="no"?>
<!DOCTYPE svg PUBLIC "-//W3C//DTD SVG 1.1//EN" "http://www.w3.org/Graphics/SVG/1.1/DTD/svg11.dtd">
<!-- 由 Microsoft Visio, SVG Export 產生 List.difference.svg Page-3 -->
<svg xmlns="http://www.w3.org/2000/svg" xmlns:xlink="http://www.w3.org/1999/xlink" xmlns:ev="http://www.w3.org/2001/xml-events"
		xmlns:v="http://schemas.microsoft.com/visio/2003/SVGExtensions/"
		viewBox="0 0 841.89 595.276" xml:space="preserve" color-interpolation-filters="sRGB" class="st4">
	<v:documentProperties v:langID="1028" v:metric="true" v:viewMarkup="false">
		<v:userDefs>
			<v:ud v:nameU="msvSubprocessMaster" v:prompt="" v:val="VT4(Rectangle)"/>
			<v:ud v:nameU="msvNoAutoConnect" v:val="VT0(1):26"/>
		</v:userDefs>
	</v:documentProperties>

	<style type="text/css">
	<![CDATA[
		.st1 {fill:#bfbfbf;stroke:#000000;stroke-width:0.75}
		.st2 {fill:#000000;font-family:Calibri;font-size:2.50001em}
		.st3 {fill:#ffffff;stroke:#000000;stroke-width:0.75}
		.st4 {fill:none;fill-rule:evenodd;font-size:12px;overflow:visible;stroke-linecap:square;stroke-miterlimit:3}
	]]>
	</style>

	<g v:mID="5" v:index="3" v:groupContext="foregroundPage">
		<v:userDefs>
			<v:ud v:nameU="msvThemeOrder" v:val="VT0(0):26"/>
		</v:userDefs>
		<title>頁-3</title>
		<v:pageProperties v:drawingScale="0.0393701" v:pageScale="0.0393701" v:drawingUnits="24" v:shadowOffsetX="8.50394"
				v:shadowOffsetY="-8.50394"/>
		<g id="shape1-1" v:mID="1" v:groupContext="shape" transform="translate(18,-463.89)">
			<title>工作表.1</title>
			<desc>A</desc>
			<v:textBlock v:margins="rect(4,4,4,4)" v:tabSpace="42.5197"/>
			<v:textRect cx="49.2477" cy="538.583" width="98.5" height="113.386"/>
			<path d="M98.5 500.29 A56.6929 56.6929 -180 0 0 0 538.58 A56.6929 56.6929 -180 0 0 98.5 576.88 A56.6929 56.6929 0 0 1
						 83.61 538.58 A56.6929 56.6929 0 0 1 98.5 500.29 Z" class="st1"/>
			<text x="40.57" y="547.58" class="st2" v:langID="1033"><v:paragraph v:horizAlign="1"/><v:tabList/>A</text>		</g>
		<g id="shape2-4" v:mID="2" v:groupContext="shape" transform="translate(101.247,-482.286)">
			<title>工作表.2</title>
			<path d="M0 556.98 A56.6929 56.6929 -180 0 0 14.89 595.28 A56.6929 56.6929 -180 0 0 29.78 556.98 A56.6929 56.6929 -180
						 0 0 14.89 518.68 A56.6929 56.6929 -180 0 0 0 556.98 Z" class="st3"/>
		</g>
		<g id="shape3-6" v:mID="3" v:groupContext="shape" transform="translate(116.154,-463.89)">
			<title>工作表.3</title>
			<desc>B</desc>
			<v:textBlock v:margins="rect(4,4,4,4)" v:tabSpace="42.5197"/>
			<v:textRect cx="49.2477" cy="538.583" width="98.5" height="113.386"/>
			<path d="M0 576.88 A56.6929 56.6929 -180 0 0 98.5 538.58 A56.6929 56.6929 -180 0 0 -0 500.29 A56.6929 56.6929 0 0 1 14.89
						 538.58 A56.6929 56.6929 0 0 1 0 576.88 Z" class="st3"/>
			<text x="41.09" y="547.58" class="st2" v:langID="1033"><v:paragraph v:horizAlign="1"/><v:tabList/>B</text>		</g>
	</g>
</svg>
